%YAML 1.1
%TAG !u! tag:unity3d.com,2011:
--- !u!1 &100000
GameObject:
  m_ObjectHideFlags: 1
  m_PrefabParentObject: {fileID: 0}
  m_PrefabInternal: {fileID: 100100000}
  serializedVersion: 3
  m_Component:
  - 4: {fileID: 400000}
  m_Layer: 0
  m_Name: TailRight
  m_TagString: Untagged
  m_Icon: {fileID: 0}
  m_NavMeshLayer: 0
  m_StaticEditorFlags: 0
  m_IsActive: 0
--- !u!1002 &100001
EditorExtensionImpl:
  serializedVersion: 6
--- !u!1 &100002
GameObject:
  m_ObjectHideFlags: 1
  m_PrefabParentObject: {fileID: 0}
  m_PrefabInternal: {fileID: 100100000}
  serializedVersion: 3
  m_Component:
  - 4: {fileID: 400002}
  m_Layer: 0
  m_Name: TailMid
  m_TagString: Untagged
  m_Icon: {fileID: 0}
  m_NavMeshLayer: 0
  m_StaticEditorFlags: 0
  m_IsActive: 0
--- !u!1002 &100003
EditorExtensionImpl:
  serializedVersion: 6
--- !u!1 &100004
GameObject:
  m_ObjectHideFlags: 1
  m_PrefabParentObject: {fileID: 0}
  m_PrefabInternal: {fileID: 100100000}
  serializedVersion: 3
  m_Component:
  - 4: {fileID: 400004}
  m_Layer: 0
  m_Name: TailLeft
  m_TagString: Untagged
  m_Icon: {fileID: 0}
  m_NavMeshLayer: 0
  m_StaticEditorFlags: 0
  m_IsActive: 0
--- !u!1002 &100005
EditorExtensionImpl:
  serializedVersion: 6
--- !u!1 &100006
GameObject:
  m_ObjectHideFlags: 1
  m_PrefabParentObject: {fileID: 0}
  m_PrefabInternal: {fileID: 100100000}
  serializedVersion: 3
  m_Component:
  - 4: {fileID: 400006}
  m_Layer: 0
  m_Name: Legs
  m_TagString: Untagged
  m_Icon: {fileID: 0}
  m_NavMeshLayer: 0
  m_StaticEditorFlags: 0
  m_IsActive: 0
--- !u!1002 &100007
EditorExtensionImpl:
  serializedVersion: 6
--- !u!1 &100008
GameObject:
  m_ObjectHideFlags: 1
  m_PrefabParentObject: {fileID: 0}
  m_PrefabInternal: {fileID: 100100000}
  serializedVersion: 3
  m_Component:
  - 4: {fileID: 400008}
  m_Layer: 0
  m_Name: Spine2
  m_TagString: Untagged
  m_Icon: {fileID: 0}
  m_NavMeshLayer: 0
  m_StaticEditorFlags: 0
  m_IsActive: 0
--- !u!1002 &100009
EditorExtensionImpl:
  serializedVersion: 6
--- !u!1 &100010
GameObject:
  m_ObjectHideFlags: 1
  m_PrefabParentObject: {fileID: 0}
  m_PrefabInternal: {fileID: 100100000}
  serializedVersion: 3
  m_Component:
  - 4: {fileID: 400022}
  m_Layer: 0
  m_Name: Spine1
  m_TagString: Untagged
  m_Icon: {fileID: 0}
  m_NavMeshLayer: 0
  m_StaticEditorFlags: 0
  m_IsActive: 0
--- !u!1002 &100011
EditorExtensionImpl:
  serializedVersion: 6
--- !u!1 &100012
GameObject:
  m_ObjectHideFlags: 1
  m_PrefabParentObject: {fileID: 0}
  m_PrefabInternal: {fileID: 100100000}
  serializedVersion: 3
  m_Component:
  - 4: {fileID: 400010}
  m_Layer: 0
  m_Name: Head
  m_TagString: Untagged
  m_Icon: {fileID: 0}
  m_NavMeshLayer: 0
  m_StaticEditorFlags: 0
  m_IsActive: 0
--- !u!1002 &100013
EditorExtensionImpl:
  serializedVersion: 6
--- !u!1 &100014
GameObject:
  m_ObjectHideFlags: 1
  m_PrefabParentObject: {fileID: 0}
  m_PrefabInternal: {fileID: 100100000}
  serializedVersion: 3
  m_Component:
  - 4: {fileID: 400012}
  m_Layer: 0
  m_Name: Neck
  m_TagString: Untagged
  m_Icon: {fileID: 0}
  m_NavMeshLayer: 0
  m_StaticEditorFlags: 0
  m_IsActive: 0
--- !u!1002 &100015
EditorExtensionImpl:
  serializedVersion: 6
--- !u!1 &100016
GameObject:
  m_ObjectHideFlags: 1
  m_PrefabParentObject: {fileID: 0}
  m_PrefabInternal: {fileID: 100100000}
  serializedVersion: 3
  m_Component:
  - 4: {fileID: 400024}
  m_Layer: 0
  m_Name: Spine0
  m_TagString: Untagged
  m_Icon: {fileID: 0}
  m_NavMeshLayer: 0
  m_StaticEditorFlags: 0
  m_IsActive: 0
--- !u!1002 &100017
EditorExtensionImpl:
  serializedVersion: 6
--- !u!1 &100018
GameObject:
  m_ObjectHideFlags: 1
  m_PrefabParentObject: {fileID: 0}
  m_PrefabInternal: {fileID: 100100000}
  serializedVersion: 3
  m_Component:
  - 4: {fileID: 400014}
  m_Layer: 0
  m_Name: RightWing2
  m_TagString: Untagged
  m_Icon: {fileID: 0}
  m_NavMeshLayer: 0
  m_StaticEditorFlags: 0
  m_IsActive: 0
--- !u!1002 &100019
EditorExtensionImpl:
  serializedVersion: 6
--- !u!1 &100020
GameObject:
  m_ObjectHideFlags: 1
  m_PrefabParentObject: {fileID: 0}
  m_PrefabInternal: {fileID: 100100000}
  serializedVersion: 3
  m_Component:
  - 4: {fileID: 400016}
  m_Layer: 0
  m_Name: RightWing1
  m_TagString: Untagged
  m_Icon: {fileID: 0}
  m_NavMeshLayer: 0
  m_StaticEditorFlags: 0
  m_IsActive: 0
--- !u!1002 &100021
EditorExtensionImpl:
  serializedVersion: 6
--- !u!1 &100022
GameObject:
  m_ObjectHideFlags: 1
  m_PrefabParentObject: {fileID: 0}
  m_PrefabInternal: {fileID: 100100000}
  serializedVersion: 3
  m_Component:
  - 4: {fileID: 400026}
  m_Layer: 0
  m_Name: RightShoulder
  m_TagString: Untagged
  m_Icon: {fileID: 0}
  m_NavMeshLayer: 0
  m_StaticEditorFlags: 0
  m_IsActive: 0
--- !u!1002 &100023
EditorExtensionImpl:
  serializedVersion: 6
--- !u!1 &100024
GameObject:
  m_ObjectHideFlags: 1
  m_PrefabParentObject: {fileID: 0}
  m_PrefabInternal: {fileID: 100100000}
  serializedVersion: 3
  m_Component:
  - 4: {fileID: 400018}
  m_Layer: 0
  m_Name: LeftWing2
  m_TagString: Untagged
  m_Icon: {fileID: 0}
  m_NavMeshLayer: 0
  m_StaticEditorFlags: 0
  m_IsActive: 0
--- !u!1002 &100025
EditorExtensionImpl:
  serializedVersion: 6
--- !u!1 &100026
GameObject:
  m_ObjectHideFlags: 1
  m_PrefabParentObject: {fileID: 0}
  m_PrefabInternal: {fileID: 100100000}
  serializedVersion: 3
  m_Component:
  - 4: {fileID: 400020}
  m_Layer: 0
  m_Name: LeftWing1
  m_TagString: Untagged
  m_Icon: {fileID: 0}
  m_NavMeshLayer: 0
  m_StaticEditorFlags: 0
  m_IsActive: 0
--- !u!1002 &100027
EditorExtensionImpl:
  serializedVersion: 6
--- !u!1 &100028
GameObject:
  m_ObjectHideFlags: 1
  m_PrefabParentObject: {fileID: 0}
  m_PrefabInternal: {fileID: 100100000}
  serializedVersion: 3
  m_Component:
  - 4: {fileID: 400028}
  m_Layer: 0
  m_Name: LeftShoulder
  m_TagString: Untagged
  m_Icon: {fileID: 0}
  m_NavMeshLayer: 0
  m_StaticEditorFlags: 0
  m_IsActive: 0
--- !u!1002 &100029
EditorExtensionImpl:
  serializedVersion: 6
--- !u!1 &100030
GameObject:
  m_ObjectHideFlags: 0
  m_PrefabParentObject: {fileID: 0}
  m_PrefabInternal: {fileID: 100100000}
  serializedVersion: 3
  m_Component:
  - 4: {fileID: 400032}
  m_Layer: 0
  m_Name: Root
  m_TagString: Untagged
  m_Icon: {fileID: 0}
  m_NavMeshLayer: 0
  m_StaticEditorFlags: 0
  m_IsActive: 0
--- !u!1002 &100031
EditorExtensionImpl:
  serializedVersion: 6
--- !u!1 &100032
GameObject:
  m_ObjectHideFlags: 0
  m_PrefabParentObject: {fileID: 0}
  m_PrefabInternal: {fileID: 100100000}
  serializedVersion: 3
  m_Component:
  - 4: {fileID: 400030}
  - 137: {fileID: 13700000}
  m_Layer: 0
  m_Name: S_Raven01
  m_TagString: Untagged
  m_Icon: {fileID: 0}
  m_NavMeshLayer: 0
  m_StaticEditorFlags: 0
  m_IsActive: 0
--- !u!1002 &100033
EditorExtensionImpl:
  serializedVersion: 6
--- !u!1 &100034
GameObject:
  m_ObjectHideFlags: 0
  m_PrefabParentObject: {fileID: 0}
  m_PrefabInternal: {fileID: 100100000}
  serializedVersion: 3
  m_Component:
  - 4: {fileID: 400034}
  - 111: {fileID: 11100000}
  - 114: {fileID: 11400000}
  m_Layer: 0
  m_Name: bird
  m_TagString: Untagged
  m_Icon: {fileID: 0}
  m_NavMeshLayer: 0
  m_StaticEditorFlags: 0
  m_IsActive: 0
--- !u!1002 &100035
EditorExtensionImpl:
  serializedVersion: 6
--- !u!4 &400000
Transform:
  m_ObjectHideFlags: 1
  m_PrefabParentObject: {fileID: 0}
  m_PrefabInternal: {fileID: 100100000}
  m_GameObject: {fileID: 100000}
  m_LocalRotation: {x: -.0323531888, y: .159607261, z: -.328319043, w: .930422187}
  m_LocalPosition: {x: -.122384258, y: 0, z: 1.43051144e-08}
  m_LocalScale: {x: 1, y: 1.00000012, z: .99999994}
  m_LocalEulerAnglesHint: {x: 2.5562439, y: 18.5762024, z: -38.454834}
  m_Children: []
  m_Father: {fileID: 400008}
--- !u!1002 &400001
EditorExtensionImpl:
  serializedVersion: 6
--- !u!4 &400002
Transform:
  m_ObjectHideFlags: 1
  m_PrefabParentObject: {fileID: 0}
  m_PrefabInternal: {fileID: 100100000}
  m_GameObject: {fileID: 100002}
  m_LocalRotation: {x: -.00204290519, y: .172490343, z: -.00113153667, w: .985008478}
  m_LocalPosition: {x: -.122384295, y: -1.86264511e-11, z: 1.43051144e-08}
  m_LocalScale: {x: 1, y: .999999881, z: 1}
  m_LocalEulerAnglesHint: {x: -.208251953, y: 19.8656464, z: -.16809082}
  m_Children: []
  m_Father: {fileID: 400008}
--- !u!1002 &400003
EditorExtensionImpl:
  serializedVersion: 6
--- !u!4 &400004
Transform:
  m_ObjectHideFlags: 1
  m_PrefabParentObject: {fileID: 0}
  m_PrefabInternal: {fileID: 100100000}
  m_GameObject: {fileID: 100004}
  m_LocalRotation: {x: .0286122877, y: .158935547, z: .331117779, w: .929667652}
  m_LocalPosition: {x: -.122384295, y: -1.86264511e-11, z: 1.43051144e-08}
  m_LocalScale: {x: 1.00000012, y: 1, z: 1}
  m_LocalEulerAnglesHint: {x: -2.98376465, y: 18.3541412, z: 38.7263947}
  m_Children: []
  m_Father: {fileID: 400008}
--- !u!1002 &400005
EditorExtensionImpl:
  serializedVersion: 6
--- !u!4 &400006
Transform:
  m_ObjectHideFlags: 1
  m_PrefabParentObject: {fileID: 0}
  m_PrefabInternal: {fileID: 100100000}
  m_GameObject: {fileID: 100006}
  m_LocalRotation: {x: -.380260825, y: -.596155822, z: -.596155465, w: .380261242}
  m_LocalPosition: {x: -.122384295, y: -1.86264511e-11, z: 1.43051144e-08}
  m_LocalScale: {x: 1, y: 1, z: .99999994}
  m_LocalEulerAnglesHint: {x: -90, y: -114.936035, z: 0}
  m_Children: []
  m_Father: {fileID: 400008}
--- !u!1002 &400007
EditorExtensionImpl:
  serializedVersion: 6
--- !u!4 &400008
Transform:
  m_ObjectHideFlags: 1
  m_PrefabParentObject: {fileID: 0}
  m_PrefabInternal: {fileID: 100100000}
  m_GameObject: {fileID: 100008}
  m_LocalRotation: {x: -5.44292234e-05, y: -.0871556923, z: -.000622129184, w: .996194541}
  m_LocalPosition: {x: -.15631631, y: 5.85243107e-08, z: 1.19209287e-09}
  m_LocalScale: {x: 1.00000036, y: .99999994, z: 1.00000012}
  m_LocalEulerAnglesHint: {x: -.0124511719, y: -10, z: -.0704956055}
  m_Children:
  - {fileID: 400006}
  - {fileID: 400004}
  - {fileID: 400002}
  - {fileID: 400000}
  m_Father: {fileID: 400022}
--- !u!1002 &400009
EditorExtensionImpl:
  serializedVersion: 6
--- !u!4 &400010
Transform:
  m_ObjectHideFlags: 1
  m_PrefabParentObject: {fileID: 0}
  m_PrefabInternal: {fileID: 100100000}
  m_GameObject: {fileID: 100012}
  m_LocalRotation: {x: 6.12646327e-05, y: -.0436194241, z: .00140318822, w: .999047279}
  m_LocalPosition: {x: -.0931242183, y: -1.7881393e-09, z: -4.76837148e-09}
  m_LocalScale: {x: .999999821, y: .999999881, z: .999999583}
  m_LocalEulerAnglesHint: {x: .0140228271, y: -5, z: .160339355}
  m_Children: []
  m_Father: {fileID: 400012}
--- !u!1002 &400011
EditorExtensionImpl:
  serializedVersion: 6
--- !u!4 &400012
Transform:
  m_ObjectHideFlags: 1
  m_PrefabParentObject: {fileID: 0}
  m_PrefabInternal: {fileID: 100100000}
  m_GameObject: {fileID: 100014}
  m_LocalRotation: {x: .00170141668, y: -.00756732468, z: .00829497818, w: .999935508}
  m_LocalPosition: {x: -.136453047, y: 3.27825544e-09, z: -9.53674295e-09}
  m_LocalScale: {x: 1.00000012, y: 1.00000024, z: 1.00000036}
  m_LocalEulerAnglesHint: {x: .202148438, y: -.865539551, z: .949050903}
  m_Children:
  - {fileID: 400010}
  m_Father: {fileID: 400024}
--- !u!1002 &400013
EditorExtensionImpl:
  serializedVersion: 6
--- !u!4 &400014
Transform:
  m_ObjectHideFlags: 1
  m_PrefabParentObject: {fileID: 0}
  m_PrefabInternal: {fileID: 100100000}
  m_GameObject: {fileID: 100018}
  m_LocalRotation: {x: -.129635632, y: .121757135, z: .627570927, w: .757973969}
  m_LocalPosition: {x: -.271883637, y: -7.62939436e-08, z: 7.15255721e-09}
  m_LocalScale: {x: .999999702, y: 1.00000012, z: 1.00000012}
  m_LocalEulerAnglesHint: {x: -20.4471436, y: 1.33721924, z: 79.0054932}
  m_Children: []
  m_Father: {fileID: 400026}
--- !u!1002 &400015
EditorExtensionImpl:
  serializedVersion: 6
--- !u!4 &400016
Transform:
  m_ObjectHideFlags: 1
  m_PrefabParentObject: {fileID: 0}
  m_PrefabInternal: {fileID: 100100000}
  m_GameObject: {fileID: 100020}
  m_LocalRotation: {x: -.183766261, y: .353085697, z: .296734631, w: .868048966}
  m_LocalPosition: {x: -.271883696, y: 8.58306848e-08, z: -1.19209282e-08}
  m_LocalScale: {x: .99999994, y: 1, z: 1.00000012}
  m_LocalEulerAnglesHint: {x: -31.9096985, y: 36.4158325, z: 27.0003967}
  m_Children: []
  m_Father: {fileID: 400026}
--- !u!1002 &400017
EditorExtensionImpl:
  serializedVersion: 6
--- !u!4 &400018
Transform:
  m_ObjectHideFlags: 1
  m_PrefabParentObject: {fileID: 0}
  m_PrefabInternal: {fileID: 100100000}
  m_GameObject: {fileID: 100024}
  m_LocalRotation: {x: .148778006, y: .144415438, z: -.622359633, w: .754770041}
  m_LocalPosition: {x: -.273418516, y: 7.53402674e-07, z: 1.78813934e-07}
  m_LocalScale: {x: 1.00000012, y: .999999881, z: .999999881}
  m_LocalEulerAnglesHint: {x: 23.8499603, y: 2.05609131, z: -78.5815735}
  m_Children: []
  m_Father: {fileID: 400028}
--- !u!1002 &400019
EditorExtensionImpl:
  serializedVersion: 6
--- !u!4 &400020
Transform:
  m_ObjectHideFlags: 1
  m_PrefabParentObject: {fileID: 0}
  m_PrefabInternal: {fileID: 100100000}
  m_GameObject: {fileID: 100026}
  m_LocalRotation: {x: .106880233, y: .451712668, z: -.273014396, w: .842612267}
  m_LocalPosition: {x: -.27342093, y: -1.90734859e-08, z: -1.19209282e-08}
  m_LocalScale: {x: 1, y: 1.00000024, z: 1.00000012}
  m_LocalEulerAnglesHint: {x: 25.2624512, y: 51.0056305, z: -23.7017822}
  m_Children: []
  m_Father: {fileID: 400028}
--- !u!1002 &400021
EditorExtensionImpl:
  serializedVersion: 6
--- !u!4 &400022
Transform:
  m_ObjectHideFlags: 1
  m_PrefabParentObject: {fileID: 0}
  m_PrefabInternal: {fileID: 100100000}
  m_GameObject: {fileID: 100010}
  m_LocalRotation: {x: 6.37774792e-05, y: -.102139004, z: .000621152634, w: .994769931}
  m_LocalPosition: {x: -.0984166116, y: 4.97379917e-16, z: 4.76837148e-09}
  m_LocalScale: {x: .99999994, y: 1.00000012, z: 1}
  m_LocalEulerAnglesHint: {x: .014541626, y: -11.7247314, z: .0700531006}
  m_Children:
  - {fileID: 400008}
  m_Father: {fileID: 400032}
--- !u!1002 &400023
EditorExtensionImpl:
  serializedVersion: 6
--- !u!4 &400024
Transform:
  m_ObjectHideFlags: 1
  m_PrefabParentObject: {fileID: 0}
  m_PrefabInternal: {fileID: 100100000}
  m_GameObject: {fileID: 100016}
  m_LocalRotation: {x: .149644196, y: -.000764882134, z: .988726735, w: .00505371671}
  m_LocalPosition: {x: -.0984166116, y: 4.97379917e-16, z: 4.76837148e-09}
  m_LocalScale: {x: .999999881, y: 1, z: 1.00000012}
  m_LocalEulerAnglesHint: {x: .173324585, y: 17.2120056, z: 179.440491}
  m_Children:
  - {fileID: 400012}
  m_Father: {fileID: 400032}
--- !u!1002 &400025
EditorExtensionImpl:
  serializedVersion: 6
--- !u!4 &400026
Transform:
  m_ObjectHideFlags: 1
  m_PrefabParentObject: {fileID: 0}
  m_PrefabInternal: {fileID: 100100000}
  m_GameObject: {fileID: 100022}
  m_LocalRotation: {x: .303493381, y: .2084167, z: -.790093839, w: .490108162}
  m_LocalPosition: {x: -.0984166116, y: 4.97379917e-16, z: 4.76837148e-09}
  m_LocalScale: {x: .99999994, y: 1.00000012, z: 1.00000012}
  m_LocalEulerAnglesHint: {x: 38.8163757, y: -20.6898193, z: -123.735474}
  m_Children:
  - {fileID: 400016}
  - {fileID: 400014}
  m_Father: {fileID: 400032}
--- !u!1002 &400027
EditorExtensionImpl:
  serializedVersion: 6
--- !u!4 &400028
Transform:
  m_ObjectHideFlags: 1
  m_PrefabParentObject: {fileID: 0}
  m_PrefabInternal: {fileID: 100100000}
  m_GameObject: {fileID: 100028}
  m_LocalRotation: {x: -.285536766, y: .178408146, z: .800361335, w: .4960455}
  m_LocalPosition: {x: -.0984166116, y: 4.97379917e-16, z: 4.76837148e-09}
  m_LocalScale: {x: .99999994, y: 1.00000012, z: .99999994}
  m_LocalEulerAnglesHint: {x: -34.6708069, y: -19.9095459, z: 122.692261}
  m_Children:
  - {fileID: 400020}
  - {fileID: 400018}
  m_Father: {fileID: 400032}
--- !u!1002 &400029
EditorExtensionImpl:
  serializedVersion: 6
--- !u!4 &400030
Transform:
  m_ObjectHideFlags: 1
  m_PrefabParentObject: {fileID: 0}
  m_PrefabInternal: {fileID: 100100000}
  m_GameObject: {fileID: 100032}
  m_LocalRotation: {x: 1.11022302e-16, y: 0, z: 0, w: 1}
  m_LocalPosition: {x: 7.62939436e-08, y: 0, z: 0}
  m_LocalScale: {x: 1, y: 1, z: 1}
  m_LocalEulerAnglesHint: {x: 0, y: 0, z: 0}
  m_Children: []
  m_Father: {fileID: 400034}
--- !u!1002 &400031
EditorExtensionImpl:
  serializedVersion: 6
--- !u!4 &400032
Transform:
  m_ObjectHideFlags: 1
  m_PrefabParentObject: {fileID: 0}
  m_PrefabInternal: {fileID: 100100000}
  m_GameObject: {fileID: 100030}
  m_LocalRotation: {x: -.707106829, y: -4.23839701e-08, z: -4.23839701e-08, w: .707106829}
  m_LocalPosition: {x: 0, y: -.0169343669, z: 7.40224715e-10}
  m_LocalScale: {x: 1, y: .999999821, z: .999999821}
  m_LocalEulerAnglesHint: {x: -90, y: 0, z: 0}
  m_Children:
  - {fileID: 400028}
  - {fileID: 400026}
  - {fileID: 400024}
  - {fileID: 400022}
  m_Father: {fileID: 400034}
--- !u!1002 &400033
EditorExtensionImpl:
  serializedVersion: 6
--- !u!4 &400034
Transform:
  m_ObjectHideFlags: 1
  m_PrefabParentObject: {fileID: 0}
  m_PrefabInternal: {fileID: 100100000}
  m_GameObject: {fileID: 100034}
  m_LocalRotation: {x: 0, y: 0, z: 0, w: 1}
  m_LocalPosition: {x: -26.1354561, y: 5.72309828, z: -193.632217}
  m_LocalScale: {x: 1, y: 1, z: 1}
  m_LocalEulerAnglesHint: {x: 0, y: 0, z: 0}
  m_Children:
  - {fileID: 400032}
  - {fileID: 400030}
  m_Father: {fileID: 0}
--- !u!1002 &400035
EditorExtensionImpl:
  serializedVersion: 6
--- !u!111 &11100000
Animation:
  m_ObjectHideFlags: 1
  m_PrefabParentObject: {fileID: 0}
  m_PrefabInternal: {fileID: 100100000}
  m_GameObject: {fileID: 100034}
  m_Enabled: 1
  serializedVersion: 3
  m_Animation: {fileID: 7400000, guid: 9b4ed24b43bc04dc38fcfacef8796072, type: 3}
  m_Animations:
  - {fileID: 7400000, guid: 9b4ed24b43bc04dc38fcfacef8796072, type: 3}
  m_WrapMode: 0
  m_PlayAutomatically: 1
  m_AnimatePhysics: 0
  m_CullingType: 1
  m_UserAABB:
    m_Center: {x: 0, y: 0, z: 0}
    m_Extent: {x: 0, y: 0, z: 0}
--- !u!1002 &11100001
EditorExtensionImpl:
  serializedVersion: 6
--- !u!114 &11400000
MonoBehaviour:
  m_ObjectHideFlags: 1
  m_PrefabParentObject: {fileID: 0}
  m_PrefabInternal: {fileID: 100100000}
  m_GameObject: {fileID: 100034}
  m_Enabled: 1
  m_EditorHideFlags: 0
  m_Script: {fileID: 11500000, guid: b2b9b472b0e0f40e8aa02c97d6f35d34, type: 1}
  m_Name: 
  sounds: []
  soundFrequency: 1
  animationSpeed: 1
  minSpeed: 0
  turnSpeed: 0
  randomFreq: 0
  randomForce: 0
  toOriginForce: 0
  toOriginRange: 0
  damping: 0
  gravity: 0
  avoidanceRadius: 0
  avoidanceForce: 0
  followVelocity: 0
  followRadius: 0
  bankTurn: 0
  raycast: 0
  bounce: .800000012
--- !u!1002 &11400001
EditorExtensionImpl:
  serializedVersion: 6
--- !u!137 &13700000
SkinnedMeshRenderer:
  m_ObjectHideFlags: 1
  m_PrefabParentObject: {fileID: 0}
  m_PrefabInternal: {fileID: 100100000}
  m_GameObject: {fileID: 100032}
  m_Enabled: 1
  m_CastShadows: 1
  m_ReceiveShadows: 1
  m_LightmapIndex: 255
  m_LightmapTilingOffset: {x: 1, y: 1, z: 0, w: 0}
  m_Materials:
  - {fileID: 2100000, guid: ff782e33456314526b64293e1afd995b, type: 2}
  m_SubsetIndices: 
  m_StaticBatchRoot: {fileID: 0}
  m_UseLightProbes: 0
  m_LightProbeAnchor: {fileID: 0}
  m_ScaleInLightmap: 1
  serializedVersion: 2
  m_Quality: 1
  m_UpdateWhenOffscreen: 0
  m_Mesh: {fileID: 4300000, guid: 9b4ed24b43bc04dc38fcfacef8796072, type: 3}
  m_Bones:
  - {fileID: 400008}
  - {fileID: 400022}
  - {fileID: 400024}
  - {fileID: 400012}
  - {fileID: 400010}
  - {fileID: 400002}
  - {fileID: 400000}
  - {fileID: 400014}
  - {fileID: 400016}
  - {fileID: 400026}
  - {fileID: 400004}
  - {fileID: 400018}
  - {fileID: 400020}
  - {fileID: 400028}
  - {fileID: 400006}
  m_RootBone: {fileID: 0}
  m_AABB:
    m_Center: {x: 0, y: 0, z: 0}
    m_Extent: {x: 0, y: 0, z: 0}
  m_DirtyAABB: 1
--- !u!1002 &13700001
EditorExtensionImpl:
  serializedVersion: 6
--- !u!1001 &100100000
Prefab:
  m_ObjectHideFlags: 1
  serializedVersion: 2
  m_Modification:
    m_TransformParent: {fileID: 0}
    m_Modifications: []
    m_RemovedComponents: []
  m_ParentPrefab: {fileID: 0}
  m_RootGameObject: {fileID: 100034}
  m_IsPrefabParent: 1
  m_IsExploded: 1
--- !u!1002 &100100001
EditorExtensionImpl:
  serializedVersion: 6
