%YAML 1.1
%TAG !u! tag:unity3d.com,2011:
--- !u!1 &100000
GameObject:
  m_ObjectHideFlags: 0
  m_PrefabParentObject: {fileID: 0}
  m_PrefabInternal: {fileID: 100100000}
  serializedVersion: 3
  m_Component:
  - 4: {fileID: 400000}
  - 15: {fileID: 1500000}
  - 12: {fileID: 1200000}
  - 26: {fileID: 2600000}
  m_Layer: 0
  m_Name: leaves
  m_TagString: Untagged
  m_Icon: {fileID: 0}
  m_NavMeshLayer: 0
  m_StaticEditorFlags: 0
  m_IsActive: 0
--- !u!1002 &100001
EditorExtensionImpl:
  serializedVersion: 6
--- !u!4 &400000
Transform:
  m_ObjectHideFlags: 1
  m_PrefabParentObject: {fileID: 0}
  m_PrefabInternal: {fileID: 100100000}
  m_GameObject: {fileID: 100000}
  m_LocalRotation: {x: 0, y: -.994186521, z: 0, w: .107671417}
  m_LocalPosition: {x: 13.212822, y: -20.7823029, z: 9.95534992}
  m_LocalScale: {x: 1, y: 1, z: 1}
  m_LocalEulerAnglesHint: {x: 0, y: -167.637817, z: 0}
  m_Children: []
  m_Father: {fileID: 0}
--- !u!1002 &400001
EditorExtensionImpl:
  serializedVersion: 6
--- !u!12 &1200000
ParticleAnimator:
  m_ObjectHideFlags: 1
  m_PrefabParentObject: {fileID: 0}
  m_PrefabInternal: {fileID: 100100000}
  m_GameObject: {fileID: 100000}
  Does Animate Color?: 1
  colorAnimation[0]:
    serializedVersion: 2
    rgba: 488055336
  colorAnimation[1]:
    serializedVersion: 2
    rgba: 4280104782
  colorAnimation[2]:
    serializedVersion: 2
    rgba: 4284447360
  colorAnimation[3]:
    serializedVersion: 2
    rgba: 4284905601
  colorAnimation[4]:
    serializedVersion: 2
    rgba: 173761656
  worldRotationAxis: {x: 0, y: 0, z: 0}
  localRotationAxis: {x: 0, y: -1.29999995, z: 0}
  sizeGrow: .100000001
  rndForce: {x: 0, y: 0, z: 0}
  force: {x: 0, y: 5, z: 0}
  damping: 1
  stopSimulation: 0
  autodestruct: 0
--- !u!1002 &1200001
EditorExtensionImpl:
  serializedVersion: 6
--- !u!15 &1500000
EllipsoidParticleEmitter:
  m_ObjectHideFlags: 1
  m_PrefabParentObject: {fileID: 0}
  m_PrefabInternal: {fileID: 100100000}
  m_GameObject: {fileID: 100000}
  serializedVersion: 2
  m_Enabled: 1
  m_Emit: 1
  minSize: 2
  maxSize: 3
  minEnergy: 2.20000005
  maxEnergy: 3
  minEmission: 30
  maxEmission: 35
  worldVelocity: {x: 0, y: 0, z: 0}
  localVelocity: {x: 0, y: 0, z: 0}
  rndVelocity: {x: 0, y: 0, z: 0}
  emitterVelocityScale: .0500000007
  tangentVelocity: {x: 0, y: 0, z: 7}
  angularVelocity: 0
  rndAngularVelocity: 0
  rndRotation: 1
  Simulate in Worldspace?: 1
  m_OneShot: 0
  m_Ellipsoid: {x: 3, y: 0, z: 3}
  m_MinEmitterRange: 1
--- !u!1002 &1500001
EditorExtensionImpl:
  serializedVersion: 6
--- !u!26 &2600000
ParticleRenderer:
  m_ObjectHideFlags: 1
  m_PrefabParentObject: {fileID: 0}
  m_PrefabInternal: {fileID: 100100000}
  m_GameObject: {fileID: 100000}
  m_Enabled: 1
  m_CastShadows: 1
  m_ReceiveShadows: 1
  m_LightmapIndex: 255
  m_LightmapTilingOffset: {x: 1, y: 1, z: 0, w: 0}
  m_Materials:
  - {fileID: 2100000, guid: 3bcf3cff59906f143bcd58934f85bd51, type: 2}
  m_SubsetIndices: 
  m_StaticBatchRoot: {fileID: 0}
  m_UseLightProbes: 0
  m_LightProbeAnchor: {fileID: 0}
  m_ScaleInLightmap: 1
  serializedVersion: 2
  m_CameraVelocityScale: 0
  m_StretchParticles: 0
  m_LengthScale: 2
  m_VelocityScale: 0
  m_MaxParticleSize: 4
  UV Animation:
    x Tile: 1
    y Tile: 1
    cycles: 1
--- !u!1002 &2600001
EditorExtensionImpl:
  serializedVersion: 6
--- !u!1001 &100100000
Prefab:
  m_ObjectHideFlags: 1
  serializedVersion: 2
  m_Modification:
    m_TransformParent: {fileID: 0}
    m_Modifications: []
    m_RemovedComponents: []
  m_ParentPrefab: {fileID: 0}
  m_RootGameObject: {fileID: 100000}
  m_IsPrefabParent: 1
  m_IsExploded: 1
--- !u!1002 &100100001
EditorExtensionImpl:
  serializedVersion: 6
