%YAML 1.1
%TAG !u! tag:unity3d.com,2011:
--- !u!21 &2100000
Material:
  serializedVersion: 3
  m_ObjectHideFlags: 0
  m_PrefabParentObject: {fileID: 0}
  m_PrefabInternal: {fileID: 0}
  m_Name: uh-1n-helix
  m_Shader: {fileID: 4800000, guid: dbe4a30fe340b2040a927e152b7e012a, type: 1}
  m_SavedProperties:
    serializedVersion: 2
    m_TexEnvs:
      data:
        first:
          name: _MainTex
        second:
          m_Texture: {fileID: 2800000, guid: b2b098239c2b0bb458dfac21785982f1, type: 1}
          m_Scale: {x: 1, y: 1}
          m_Offset: {x: 0, y: 0}
    m_Floats: {}
    m_Colors:
      data:
        first:
          name: _Color
        second: {r: .588, g: .588, b: .588, a: 1}
--- !u!1002 &2100001
EditorExtensionImpl:
  serializedVersion: 6
