%YAML 1.1
%TAG !u! tag:unity3d.com,2011:
--- !u!21 &2100000
Material:
  serializedVersion: 3
  m_ObjectHideFlags: 0
  m_PrefabParentObject: {fileID: 0}
  m_PrefabInternal: {fileID: 0}
  m_Name: alpha_cancel
  m_Shader: {fileID: 4800000, guid: c9331083725b6734893fd9616e8297ec, type: 1}
  m_SavedProperties:
    serializedVersion: 2
    m_TexEnvs:
      data:
        first:
          name: _MainTex
        second:
          m_Texture: {fileID: 2800000, guid: 6851c383ba273c84198eded7e78cd66d, type: 1}
          m_Scale: {x: 1, y: 1}
          m_Offset: {x: 0, y: 0}
    m_Floats:
      data:
        first:
          name: _Shininess
        second: .699999988
    m_Colors:
      data:
        first:
          name: _Color
        second: {r: 1, g: 1, b: 1, a: 0}
      data:
        first:
          name: _SpecColor
        second: {r: 1, g: 1, b: 1, a: 0}
      data:
        first:
          name: _Emission
        second: {r: 0, g: 0, b: 0, a: 0}
--- !u!1002 &2100001
EditorExtensionImpl:
  serializedVersion: 6
