%YAML 1.1
%TAG !u! tag:unity3d.com,2011:
--- !u!21 &2100000
Material:
  serializedVersion: 3
  m_ObjectHideFlags: 0
  m_PrefabParentObject: {fileID: 0}
  m_PrefabInternal: {fileID: 0}
  m_Name: radar_map_arrow
  m_Shader: {fileID: 34, guid: 0000000000000000e000000000000000, type: 0}
  m_SavedProperties:
    serializedVersion: 2
    m_TexEnvs:
      data:
        first:
          name: _MainTex
        second:
          m_Texture: {fileID: 2800000, guid: 8b8984138e5a45b458e47afa0ee03a6f, type: 1}
          m_Scale: {x: 24, y: 24}
          m_Offset: {x: -11.5, y: -15.8000002}
    m_Floats:
      data:
        first:
          name: _Shininess
        second: .699999988
    m_Colors:
      data:
        first:
          name: _Color
        second: {r: 0, g: 0, b: 0, a: 1}
      data:
        first:
          name: _SpecColor
        second: {r: 0, g: 0, b: 0, a: 0}
      data:
        first:
          name: _Emission
        second: {r: .470149279, g: .470149279, b: .470149279, a: 1}
--- !u!1002 &2100001
EditorExtensionImpl:
  serializedVersion: 6
