%YAML 1.1
%TAG !u! tag:unity3d.com,2011:
--- !u!21 &2100000
Material:
  serializedVersion: 3
  m_ObjectHideFlags: 0
  m_PrefabParentObject: {fileID: 0}
  m_PrefabInternal: {fileID: 0}
  m_Name: fogo
  m_Shader: {fileID: 203, guid: 0000000000000000e000000000000000, type: 0}
  m_SavedProperties:
    serializedVersion: 2
    m_TexEnvs:
      data:
        first:
          name: _MainTex
        second:
          m_Texture: {fileID: 2800000, guid: 9fa4e2d3e12e8e24daf1d7d9df2375d2, type: 1}
          m_Scale: {x: 1, y: 1}
          m_Offset: {x: 0, y: 0}
    m_Floats: {}
    m_Colors:
      data:
        first:
          name: _Color
        second: {r: 1, g: 1, b: 1, a: 1}
      data:
        first:
          name: _TintColor
        second: {r: 1, g: .619403005, b: .619403005, a: .549019635}
--- !u!1002 &2100001
EditorExtensionImpl:
  serializedVersion: 6
