%YAML 1.1
%TAG !u! tag:unity3d.com,2011:
--- !u!21 &2100000
Material:
  serializedVersion: 3
  m_ObjectHideFlags: 0
  m_PrefabParentObject: {fileID: 0}
  m_PrefabInternal: {fileID: 0}
  m_Name: far_terrain
  m_Shader: {fileID: 4800000, guid: c3adb9d88b6784b4e8c90a489201d8dd, type: 1}
  m_SavedProperties:
    serializedVersion: 2
    m_TexEnvs:
      data:
        first:
          name: _MainTex
        second:
          m_Texture: {fileID: 0}
          m_Scale: {x: 1, y: 1}
          m_Offset: {x: 0, y: 0}
      data:
        first:
          name: _Control
        second:
          m_Texture: {fileID: 2800000, guid: 824d01c3913b9df44b93a351cacc4845, type: 1}
          m_Scale: {x: 1, y: 1}
          m_Offset: {x: 0, y: 0}
      data:
        first:
          name: _BaseMap
        second:
          m_Texture: {fileID: 2800000, guid: 085cdc7bc3f89444abc0a524218d5fa8, type: 1}
          m_Scale: {x: 1, y: 1}
          m_Offset: {x: 0, y: 0}
      data:
        first:
          name: _Splat0
        second:
          m_Texture: {fileID: 2800000, guid: bb94d59812653424ba0f3387ef98927d, type: 1}
          m_Scale: {x: 20, y: 20}
          m_Offset: {x: 0, y: 0}
      data:
        first:
          name: _Splat1
        second:
          m_Texture: {fileID: 2800000, guid: 74915955753e9004184334d8ae017d3b, type: 1}
          m_Scale: {x: 300, y: 300}
          m_Offset: {x: 0, y: 0}
      data:
        first:
          name: _Splat2
        second:
          m_Texture: {fileID: 2800000, guid: 0f757974b2713b7469533f177f1e07a6, type: 1}
          m_Scale: {x: 200, y: 200}
          m_Offset: {x: 0, y: 0}
      data:
        first:
          name: _Splat3
        second:
          m_Texture: {fileID: 2800000, guid: b3049434743c68f42b803158738de181, type: 1}
          m_Scale: {x: 50, y: 50}
          m_Offset: {x: 0, y: 0}
    m_Floats: {}
    m_Colors:
      data:
        first:
          name: _Color
        second: {r: 1, g: 1, b: 1, a: 1}
--- !u!1002 &2100001
EditorExtensionImpl:
  serializedVersion: 6
